<?xml version="1.0" encoding="UTF-8"?>
<svg width="302px" height="266px" viewBox="0 0 302 266" version="1.1" xmlns="http://www.w3.org/2000/svg" xmlns:xlink="http://www.w3.org/1999/xlink">
    <!-- Generator: sketchtool 57 (101010) - https://sketch.com -->
    <title>965308C4-1473-4381-8906-B2E188E0E3F4</title>
    <desc>Created with sketchtool.</desc>
    <g id="Customer" stroke="none" stroke-width="1" fill="none" fill-rule="evenodd">
        <g id="onboarding-4" transform="translate(-36.000000, -140.000000)" fill-rule="nonzero">
            <g id="Group-4" transform="translate(30.000000, 140.000000)">
                <g id="Relax" transform="translate(6.000000, 0.000000)">
                    <g id="Group-5">
                        <rect id="Rectangle" fill="#D1E3FF" x="235.4075" y="237.1275" width="13.3875" height="1"></rect>
                        <rect id="Rectangle" fill="#D1E3FF" x="256.91" y="237.03" width="32.6775" height="1"></rect>
                        <rect id="Rectangle" fill="#D1E3FF" x="146.5175" y="240.3225" width="48.7275" height="1"></rect>
                        <rect id="Rectangle" fill="#D1E3FF" x="133.7825" y="240.3225" width="8.415" height="1"></rect>
                        <rect id="Rectangle" fill="#D1E3FF" x="34.0775" y="236.8425" width="31.5" height="1"></rect>
                        <rect id="Rectangle" fill="#D1E3FF" x="69.74" y="236.8425" width="22.365" height="1"></rect>
                        <rect id="Rectangle" fill="#D1E3FF" x="13.16" y="240.2325" width="26.7075" height="1"></rect>
                        <path d="M177.065,13.9275 C173.315,5.79 176.315,3.37507799e-14 185.495,3.37507799e-14 C191.2625,3.37507799e-14 198.4175,2.25 205.385,6 C206.1725,3.885 208.385,2.61 211.955,2.61 C218.2325,2.61 226.8875,6.5325 233.705,12.06 C235.3475,10.8225 237.725,10.0725 240.7775,9.9525 C246.7775,9.6975 254.06,11.955 260.39,15.615 C261.138511,14.9041852 262.140825,14.5232519 263.1725,14.5575 C266.6375,14.415 271.3175,16.6875 273.6725,19.6275 C273.815,19.815 273.9425,19.995 274.07,20.175 L172.3925,20.175 C169.1825,17.28 172.73,14.07 177.065,13.9275 Z" id="Path" fill="#FFFFFF" opacity="0.274669829"></path>
                        <path d="M16.055,49.29 C16.4284336,49.2471733 16.8041295,49.2271361 17.18,49.23 C16.8275,45.33 18.8525,42.84 23.18,42.84 C26.2925,42.84 30.1175,44.1375 34.01,46.335 C32.8925,38.7675 36.4925,33.84 44.54,33.84 C51.065,33.84 59.315,37.035 67.475,42.2625 C68.1875,39.2625 70.5875,37.5075 74.6225,37.5075 C81.7175,37.5075 91.79,43.0125 99.875,50.7675 C99.875,50.7675 99.875,50.7675 99.875,50.7675 C101.6225,49.0425 104.24,47.97 107.69,47.7675 C114.44,47.4225 122.825,50.58 130.2575,55.7325 C130.968084,54.7548675 132.117052,54.1930249 133.325,54.2325 C137.0225,54.0375 142.1075,56.88 145.0625,60.6825 L10.115,60.6825 C6.9425,54.9825 9.4925,49.935 16.055,49.29 Z" id="Path" fill="#FFFFFF" opacity="0.274669829"></path>
                        <rect id="Rectangle" fill="#D4E8FF" transform="translate(240.575000, 157.473750) rotate(180.000000) translate(-240.575000, -157.473750) " x="205.5125" y="138.3525" width="70.125" height="38.2425"></rect>
                        <rect id="Rectangle" fill="#CADEFC" x="181.3325" y="138.345" width="24.1875" height="38.2425"></rect>
                        <rect id="Rectangle" fill="#F3F8FF" transform="translate(205.520000, 168.907500) rotate(180.000000) translate(-205.520000, -168.907500) " x="204.575" y="106.395" width="1.89" height="125.025"></rect>
                        <rect id="Rectangle" fill="#F3F8FF" transform="translate(181.332500, 168.907500) rotate(180.000000) translate(-181.332500, -168.907500) " x="180.3875" y="106.395" width="1.89" height="125.025"></rect>
                        <rect id="Rectangle" fill="#F3F8FF" transform="translate(275.637500, 168.907500) rotate(180.000000) translate(-275.637500, -168.907500) " x="274.6925" y="106.395" width="1.89" height="125.025"></rect>
                        <polygon id="Path" fill="#D4E8FF" points="276.59 106.395 204.575 106.395 228.47 90.27"></polygon>
                        <polygon id="Path" fill="#CADEFC" points="180.3875 106.395 204.575 106.395 228.47 90.27"></polygon>
                        <path d="M19.145,231.4275 L31.9925,231.4275 C38.7425,219.6975 42.44,188.2725 33.005,154.1325 C31.3914107,148.295923 29.4380803,142.558641 27.155,136.95 C23.6075,184.905 8.2175,217.2 19.145,231.4275 Z" id="Path" fill="#EEF5FF" opacity="0.121372768"></path>
                        <path d="M42.92,231.4275 L30.0425,231.4275 C24.0425,222.7575 22.31,199.53 33.89,174.2925 C35.9093067,169.907706 38.2246552,165.665406 40.82,161.595 C41.3825,197.04 54.7475,220.9125 42.92,231.4275 Z" id="Path" fill="#EEF5FF" opacity="0.121372768"></path>
                        <path d="M49.4675,194.4675 C59.465,178.965 58.3325,224.655 76.715,204.3525 C99.29,179.4075 131.69,171.045 117.53,190.1025 C103.37,209.16 111.8,215.805 147.53,194.43 C173.4575,178.9275 125.6525,225.405 138.7475,223.6425 C151.8425,221.88 171.6275,218.2575 154.6925,231.39 L44.87,231.39 C44.87,231.39 39.4925,209.9775 49.4675,194.4675 Z" id="Path" fill="#E3EEFF" opacity="0.121372768"></path>
                        <path d="M270.65,231.4275 C270.65,231.4275 272.72,213.0975 257.825,203.6775 C262.0775,216.96 257.7275,231.4275 257.7275,231.4275 L270.65,231.4275 Z" id="Path" fill="#E3EEFF" opacity="0.0374581473"></path>
                        <path d="M262.37,231.4275 C262.37,231.4275 266.5775,216.4275 281.78,208.7475 C277.065727,215.495448 274.029187,223.270637 272.9225,231.4275 L262.37,231.4275 Z" id="Path" fill="#E3EEFF" opacity="0.0374581473"></path>
                        <path d="M158.1725,231.4275 C158.1725,231.4275 158.9225,222.5025 167.075,217.9275 C165.049301,222.125117 164.149874,226.777324 164.465,231.4275 L158.1725,231.4275 Z" id="Path" fill="#EEF9FF" opacity="0.0374581473"></path>
                        <path d="M153.4925,231.4275 C153.4925,231.4275 154.04,216.4275 163.9925,210.9975 C159.5525,218.685 159.8075,231.4275 159.8075,231.4275 L153.4925,231.4275 Z" id="Path" fill="#EEF9FF" opacity="0.0374581473"></path>
                        <path d="M3.3875,231.4275 C3.3875,231.4275 3.785,227.7225 8.09,225.8175 C7.03013403,227.486804 6.54548394,229.457012 6.71,231.4275 L3.3875,231.4275 Z" id="Path" fill="#EEF9FF" opacity="0.0374581473"></path>
                        <path d="M296.045,231.4275 C295.416106,226.125616 297.57186,220.875222 301.745,217.545 C299.45,221.25 298.745,229.2525 299.81,231.4275 L296.045,231.4275 Z" id="Path" fill="#E3EEFF" opacity="0.0374581473"></path>
                        <path d="M44.93,231.4275 C46.43,222.93 44.4725,202.74 27.815,189.75 C34.6925,200.88 36.815,224.895 33.635,231.4275 L44.93,231.4275 Z" id="Path" fill="#FFFFFF" opacity="0.0374581473"></path>
                        <path d="M5.8625,231.4275 C5.8625,231.4275 5.57,225.21 0.3275,222.9525 C2.675,226.14 2.54,231.4275 2.54,231.4275 L5.8625,231.4275 Z" id="Path" fill="#EEF9FF" opacity="0.0374581473"></path>
                        <ellipse id="Oval" fill="#FFFFFF" opacity="0.274669829" cx="150.4925" cy="256.8075" rx="145.4175" ry="8.49"></ellipse>
                        <path d="M177.6275,63.2925 C177.6275,63.2925 120.32,128.7375 148.58,252.4575 L176.3675,252.4575 C177.404702,252.4575 178.378223,251.957281 178.981085,251.113275 C179.583947,250.269269 179.741849,249.18598 179.405,248.205 C172.0775,226.905 142.5425,130.3875 184.655,68.3175 C180.5825,65.655 177.6275,63.2925 177.6275,63.2925 Z" id="Path" fill="#1B2E5A"></path>
                        <path d="M173.6675,88.8825 C173.33,89.67 173.0075,90.4725 172.7075,91.2675 C168.593216,90.8432888 164.438946,91.0252276 160.3775,91.8075 C160.82,90.8625 161.255,89.94 161.6975,89.0475 C165.662389,88.4601934 169.687929,88.4047035 173.6675,88.8825 L173.6675,88.8825 Z" id="Path" fill="#030E1A"></path>
                        <path d="M168.95,102.375 C168.7175,103.17 168.4925,103.9575 168.2825,104.76 C164.4575,102.9 160.1225,102.51 155.8025,102.51 C156.125,101.6775 156.4475,100.8675 156.785,100.0575 C161.03,100.1475 165.17,100.6575 168.95,102.375 Z" id="Path" fill="#030E1A"></path>
                        <path d="M165.4925,117.21 C165.335,118.0275 165.1925,118.845 165.0575,119.6625 C160.25,118.05 155.2625,117.06 150.425,118.0425 C150.6875,117.15 150.965,116.2725 151.25,115.395 C155.96,114.7575 160.7825,115.68 165.4925,117.21 Z" id="Path" fill="#030E1A"></path>
                        <path d="M163.16,134.94 C163.0925,135.7725 163.0325,136.6125 162.98,137.4525 C157.422741,135.784393 151.582393,135.273873 145.82,135.9525 C145.9925,135.0975 146.18,134.2575 146.375,133.4175 C152.015974,132.869126 157.709761,133.385587 163.16,134.94 L163.16,134.94 Z" id="Path" fill="#030E1A"></path>
                        <path d="M162.4925,154.44 C155.878552,153.251504 149.085807,153.507351 142.58,155.19 C142.6925,154.29 142.805,153.3975 142.9325,152.5125 C149.339094,150.992159 155.986295,150.777898 162.4775,151.8825 C162.4925,152.73 162.4925,153.5925 162.4925,154.44 Z" id="Path" fill="#030E1A"></path>
                        <path d="M164.03,179.0175 C156.105398,179.211339 148.260165,180.646257 140.78,183.27 C140.78,182.385 140.78,181.515 140.8175,180.645 C148.226678,178.149236 155.967063,176.774067 163.7825,176.565 C163.8575,177.39 163.94,178.2075 164.03,179.0175 Z" id="Path" fill="#030E1A"></path>
                        <path d="M168.2525,206.4225 C159.361018,205.677201 150.411162,206.050112 141.6125,207.5325 C141.545,206.7 141.4775,205.86 141.4175,205.035 C150.114926,203.599249 158.953904,203.218996 167.7425,203.9025 C167.93,204.75 168.0875,205.59 168.2525,206.4225 Z" id="Path" fill="#030E1A"></path>
                        <path d="M128.795,230.0625 C128.862647,222.453396 128.471939,214.847125 127.625,207.285 C127.5425,206.4525 127.445,205.6125 127.325,204.7575 C126.315989,196.615047 124.686244,188.561602 122.45,180.6675 C122.225,179.865 121.985,179.0475 121.7,178.23 C120.136401,173.062489 118.27069,167.99126 116.1125,163.0425 C115.7675,162.2925 115.43,161.5425 115.07,160.755 C113.12995,156.541555 110.946255,152.444624 108.53,148.485 C108.095,147.78 107.66,147.0825 107.21,146.385 C104.683302,142.423553 101.905098,138.628261 98.8925,135.0225 C98.3675,134.4 97.8425,133.7775 97.3025,133.1625 C94.6128215,130.082863 91.7507303,127.158171 88.73,124.4025 C88.07,123.8025 87.395,123.2025 86.7125,122.61 C80.4872117,117.23447 73.6975521,112.549605 66.4625,108.6375 C69.2858026,106.702559 72.2292363,104.949024 75.275,103.3875 C76.925,103.8375 87.23,108.18 100.2275,118.3875 C101.1275,119.0925 102.035,119.82 102.9575,120.585 C105.2825,122.505 107.6825,124.605 110.1125,126.9 C110.795,127.545 111.4925,128.205 112.175,128.8875 C115.8934,132.540128 119.422989,136.380121 122.75,140.3925 C123.4325,141.2175 124.115,142.065 124.8125,142.9275 C127.3475,146.13 129.875,149.5725 132.3125,153.255 C132.8075,154.005 133.2875,154.755 133.8125,155.505 C137.412364,161.091546 140.6684,166.8923 143.5625,172.875 C143.9675,173.7 144.365,174.5325 144.7475,175.38 C148.54358,183.536215 151.717625,191.96774 154.2425,200.6025 C154.4975,201.435 154.7375,202.2675 154.9925,203.115 C156.941517,210.101519 158.518731,217.186464 159.7175,224.34 C159.845,225.15 159.9875,225.975 160.115,226.8075 C161.441626,235.3043 162.3054,243.866932 162.7025,252.457538 L130.85,252.457538 C129.933302,252.461942 129.058858,252.072416 128.449029,251.387972 C127.8392,250.703529 127.552742,249.790114 127.6625,248.88 C128.06,245.49 128.5925,239.88 128.75,232.6875 C128.7425,231.84 128.7875,230.9625 128.795,230.0625 Z" id="Path" fill="#1B2E5A"></path>
                        <path d="M103.0175,120.57 C98.0808301,121.00943 93.2586012,122.306356 88.7675,124.4025 C88.1075,123.8025 87.4325,123.2025 86.75,122.61 C91.0136436,120.499519 95.5814722,119.0697 100.2875,118.3725 C101.1875,119.0775 102.095,119.805 103.0175,120.57 Z" id="Path" fill="#000000"></path>
                        <path d="M112.2425,128.8725 C107.48,130.2675 102.6275,131.7975 98.9375,135.0225 C98.4125,134.4 97.8875,133.7775 97.3475,133.1625 C100.9625,130.0425 105.485,128.3175 110.18,126.885 C110.855,127.53 111.5525,128.19 112.2425,128.8725 Z" id="Path" fill="#000000"></path>
                        <path d="M124.8725,142.9125 C118.8725,142.455 113.4725,145.0725 108.5675,148.485 C108.1325,147.78 107.6975,147.0825 107.2475,146.385 C112.01,143.115 117.155,140.5875 122.81,140.385 C123.4925,141.2025 124.175,142.05 124.8725,142.9125 Z" id="Path" fill="#000000"></path>
                        <path d="M133.8575,155.475 C127.453617,156.609021 121.395534,159.198011 116.15,163.0425 C115.805,162.2925 115.4675,161.5425 115.1075,160.755 C120.270182,157.076965 126.146551,154.522022 132.3575,153.255 C132.8825,153.975 133.3625,154.71 133.8575,155.475 Z" id="Path" fill="#000000"></path>
                        <path d="M144.785,175.35 C137.015007,175.249904 129.341304,177.076853 122.45,180.6675 C122.225,179.865 121.985,179.0475 121.7,178.23 C128.470283,174.761177 135.955646,172.917441 143.5625,172.845 C144.005,173.67 144.4025,174.5025 144.785,175.35 Z" id="Path" fill="#000000"></path>
                        <path d="M154.9925,203.115 C145.68867,202.809117 136.408272,204.222789 127.6175,207.285 C127.535,206.4525 127.4375,205.6125 127.3175,204.7575 C135.983607,201.821451 145.09445,200.415488 154.2425,200.6025 C154.5275,201.435 154.7675,202.2675 154.9925,203.115 Z" id="Path" fill="#000000"></path>
                        <path d="M160.1225,226.8075 C149.427447,227.188465 138.849919,229.170488 128.7425,232.6875 C128.7425,231.8325 128.78,230.9625 128.7875,230.0625 C138.769516,226.670896 149.190252,224.743376 159.725,224.34 C159.8525,225.15 159.995,225.975 160.1225,226.8075 Z" id="Path" fill="#000000"></path>
                        <path d="M220.4375,60.09 C238.4375,51.225 254.345,48.0375 264.6875,45.84 C245.2625,29.9625 219.4625,36.6975 207.29,41.34 C215.105,29.19 223.2425,20.4825 228.8525,14.34 C204.4925,12.7575 187.6775,32.13 180.1475,43.155 C170.8475,36.5325 145.025,21.075 120.6725,33.255 C130.265,37.6425 145.085,44.2575 160.685,56.8575 C149.51,57.9975 119.5775,63.4275 109.3325,88.8675 C121.9475,85.035 142.9775,78.3675 170.8325,80.1975 L172.2425,80.34 C198.0725,82.8075 212.435,94.5 220.835,100.695 C220.4975,92.775 216.6875,86.55 212.12,81.885 C236.12,86.8425 253.0025,96.66 263.5175,102.63 C259.1,75.525 231.08,63.6525 220.4375,60.09 Z" id="Path" fill="#1B2E5A"></path>
                        <path d="M117.185,106.59 C107.5325,94.6575 90.62,96.6675 84.4475,97.89 C90.7325,88.5825 97.58,82.6125 101.99,78.69 C86.9525,76.17 75.68,88.68 71.7875,93.75 C65.945,89.085 53.7875,81.4875 40.9925,86.325 C46.6320481,89.477282 51.9805508,93.1241024 56.975,97.2225 C49.7,96.7575 34.79,97.3875 26.975,109.0725 C32.8475,108.54 41.885,107.64 52.9775,109.425 C47.87,113.085 34.82,124.035 36.9125,139.2525 C41.555,134.325 48.995,126.3 61.01,119.7075 C59.0615972,123.206831 58.4994363,127.310605 59.435,131.205 C62.915,126.51 68.69,117.885 82.1375,112.32 L82.8425,112.0425 C97.4675,106.5 109.805,106.59 117.185,106.59 Z" id="Path" fill="#1B2E5A"></path>
                        <path d="M47.9675,252.090437 C47.4508863,252.073979 46.9722693,251.814625 46.6767615,251.390571 C46.3812536,250.966518 46.3036577,250.427706 46.4675,249.9375 L50.075,239.4375 C50.525,237.8925 58.325,212.505 77.9075,202.2 C87.3125,197.265 97.865,196.68 109.2725,200.46 C146.0225,212.64 183.1925,218.7225 206.12,181.1175 C206.606623,180.395818 207.574941,180.184766 208.317751,180.638482 C209.060562,181.092199 209.314895,182.05006 208.895,182.8125 C198.08,200.535 183.635,210.2475 164.7275,212.49 C149.7275,214.275 132.305,211.5075 108.2525,203.535 C97.7525,200.0475 88.0025,200.535 79.415,205.0725 C60.815,214.8225 53.2475,240.135 53.165,240.39 L53.165,240.4575 L49.55,250.9575 C49.3332492,251.645064 48.6882272,252.106668 47.9675,252.090437 L47.9675,252.090437 Z" id="Path" fill="#0053CC"></path>
                        <path d="M210.35,182.79 C208.663987,182.307327 206.859848,182.975527 205.895,184.44 C183.1175,218.9925 147.575,214.8675 108.725,201.99 C74.7425,190.74 58.3475,222.5025 53.3225,235.065 C52.8557927,236.219541 52.9537932,237.525632 53.587563,238.5976 C54.2213329,239.669568 55.3184692,240.384949 56.555,240.5325 L101.7425,246.09 C101.7425,246.09 119.6825,206.1225 157.49,224.1525 C195.2975,242.1825 237.4925,234.4725 260.2025,197.25 L210.35,182.79 Z" id="Path" fill="#3762C6"></path>
                        <path d="M98.09,258.3975 C97.5733863,258.381479 97.0947693,258.122125 96.7992615,257.698071 C96.5037536,257.274018 96.4261577,256.735206 96.59,256.245 L98.405,250.9575 C101.026072,243.16575 105.365601,236.063071 111.1025,230.175 C120.3125,220.8825 135.965,212.0325 158.24,222.675 C197.45,241.3725 237.8825,230.82 258.86,196.425 C259.32599,195.660776 260.323276,195.41901 261.0875,195.885 C261.851724,196.35099 262.09349,197.348276 261.6275,198.1125 C239.7425,233.9925 197.5925,245.04 156.8075,225.585 C136.2425,215.7825 121.835,223.9125 113.375,232.455 C107.979539,237.994982 103.898884,244.67731 101.435,252.0075 L99.62,257.295 C99.4004585,257.953506 98.7841384,258.3975 98.09,258.3975 L98.09,258.3975 Z" id="Path" fill="#0053CC"></path>
                        <path d="M248.1125,258.3975 C247.584242,258.396572 247.089296,258.139312 246.785,257.7075 L225.8225,228.09 C225.304733,227.358913 225.477663,226.346517 226.20875,225.82875 C226.939837,225.310983 227.952233,225.483913 228.47,226.215 L249.47,255.8775 C249.815539,256.373726 249.857477,257.020617 249.578903,257.557304 C249.300329,258.093992 248.747172,258.431992 248.1425,258.435 L248.1125,258.3975 Z" id="Path" fill="#0053CC"></path>
                        <path d="M256.7225,202.725 C256.220974,200.182998 255.423022,197.708593 254.345,195.3525 C253.313067,193.093223 252.148537,190.896896 250.8575,188.775 C249.575784,186.668322 248.173449,184.637439 246.6575,182.6925 L244.085,184.47 C245.21,186.4725 246.335,188.58 247.295,190.695 C248.29965,192.7755 249.178725,194.914333 249.9275,197.1 C250.680275,199.17761 251.208288,201.329892 251.5025,203.52 C251.709857,204.956282 251.630838,206.419404 251.27,207.825 C249.716114,208.282103 248.132283,208.630446 246.53,208.8675 C244.52903,209.148075 242.512757,209.30587 240.4925,209.34 C238.45066,209.361032 236.409421,209.258344 234.38,209.0325 C233.36,208.92 232.3475,208.785 231.3425,208.6125 C230.84,208.53 230.345,208.425 229.8425,208.3275 C229.34,208.23 228.8225,208.1175 228.4625,208.02 L226.7225,214.0875 C227.4125,214.29 227.93,214.41 228.5225,214.545 C229.115,214.68 229.67,214.7775 230.2475,214.875 C231.395,215.0775 232.5425,215.235 233.6975,215.355 C236.004883,215.584999 238.325247,215.657667 240.6425,215.5725 C241.805,215.5275 242.9675,215.445 244.13,215.3175 C245.2925,215.19 246.44,215.0025 247.5875,214.7625 C249.889166,214.3069 252.147461,213.654503 254.3375,212.8125 L255.425,212.3925 L255.8975,211.44 C256.584518,210.022017 256.970131,208.477011 257.03,206.9025 C257.092649,205.502745 256.989431,204.100495 256.7225,202.725 Z" id="Path" fill="#FF8B7B"></path>
                        <path d="M245.9,187.14 L239.2625,183.315 L245.69,178.965 C245.69,178.965 248.1125,182.3325 247.79,185.4 L245.9,187.14 Z" id="Path" fill="#FF8B7B"></path>
                        <polygon id="Path" fill="#FF8B7B" points="236.1725 179.31 241.55 176.97 245.69 178.965 239.2625 183.315"></polygon>
                        <path d="M199.31,190.2 C199.0625,189.8625 198.92,189.645 198.7475,189.3825 L198.2675,188.6325 C197.96,188.115 197.6675,187.605 197.3975,187.08 C196.85,186.045 196.355,184.98 195.8975,183.9 C195.018985,181.721789 194.363144,179.460269 193.94,177.15 C193.728454,175.983929 193.580734,174.807178 193.4975,173.625 C193.433738,172.435854 193.433738,171.244146 193.4975,170.055 C193.573315,168.862174 193.721083,167.675014 193.94,166.5 C194.0375,165.915 194.195,165.3375 194.3225,164.7525 L194.5625,163.89 L194.6825,163.4625 L194.6825,163.35 L194.7425,163.1925 L194.855,162.8625 C195.210116,161.922744 195.795515,161.087197 196.5575,160.4325 C197.275958,159.824915 198.12181,159.38661 199.0325,159.15 C200.425864,158.817288 201.871656,158.76629 203.285,159 C205.60975,159.383202 207.877382,160.055933 210.035,161.0025 C214.088477,162.760617 217.961652,164.908195 221.6,167.415 L220.01,170.1075 C218.1275,169.23 216.185,168.3525 214.2425,167.58 C212.335128,166.770877 210.387579,166.059947 208.4075,165.45 C206.565362,164.837729 204.661377,164.430271 202.73,164.235 C202.014579,164.156704 201.29074,164.220422 200.6,164.4225 C200.468972,164.457037 200.351372,164.530211 200.2625,164.6325 C200.227249,164.695748 200.201953,164.764049 200.1875,164.835 L199.91,166.0425 C199.835,166.515 199.73,166.9725 199.6775,167.445 C199.551337,168.387512 199.481214,169.33668 199.4675,170.2875 C199.466946,172.196791 199.657901,174.101324 200.0375,175.9725 C200.437831,177.865033 201.015377,179.715692 201.7625,181.5 C202.13,182.4 202.5125,183.285 202.9925,184.14 C203.21,184.5675 203.45,184.9875 203.69,185.4 L204.05,186 L204.3725,186.5175 L199.31,190.2 Z" id="Path" fill="#FF8B7B"></path>
                        <path d="M218.8175,169.23 L224.465,173.8425 L225.965,166.2225 C225.965,166.2225 221.72,164.7225 219.02,166.2225 L218.8175,169.23 Z" id="Path" fill="#FF8B7B"></path>
                        <polygon id="Path" fill="#FF8B7B" points="230.99 173.655 231.035 167.79 225.9425 166.2225 224.465 173.8425"></polygon>
                        <path d="M233.39,163.2975 C229.9025,163.5675 221.255,163.89 217.9175,174.2475 C214.58,184.605 199.9175,183.0975 204.35,191.4075 C211.565,204.8475 222.0725,207.4725 232.4375,204.405 C242.8025,201.3375 255.725,189.7125 247.2125,174.93 C238.7,160.1475 233.39,163.2975 233.39,163.2975 Z" id="Path" fill="#0F264C"></path>
                        <path d="M206.9525,195.6675 C209.2625,186.9825 203.0225,178.95 203.0225,178.95 L189.5225,185.4825 C189.5225,185.4825 194.0225,194.8575 197.57,196.8525 C201.305,198.93 205.7675,200.1225 206.9525,195.6675 Z" id="Path" fill="#9FC6FF"></path>
                        <path d="M155.675,209.4225 C154.8125,209.0025 153.7625,208.515 152.7875,208.08 L149.7875,206.73 C147.7775,205.845 145.745,204.975 143.705,204.1575 C139.6325,202.485 135.515,200.94 131.375,199.56 C127.287617,198.176327 123.129183,197.012166 118.9175,196.0725 C116.84,195.6 114.77,195.2325 112.715,194.9475 L111.965,194.8425 C111.7775,194.8425 111.86,194.8425 111.8675,194.8425 L111.8675,194.8425 C111.738806,194.816439 111.606194,194.816439 111.4775,194.8425 C110.796815,195.002084 110.137278,195.241229 109.5125,195.555 C107.767734,196.407021 106.101309,197.410891 104.5325,198.555 C102.83,199.7475 101.1425,201.0825 99.4625,202.455 C96.08,205.2075 92.81,208.2375 89.5475,211.305 C83.075,217.4775 76.73,224.055 70.5275,230.565 L65.18,226.3125 C70.440567,218.651403 76.1374771,211.299259 82.2425,204.2925 C85.3025,200.7675 88.5275,197.355 91.9925,194.025 C93.725,192.3675 95.54,190.7625 97.475,189.195 C99.5126372,187.519523 101.69352,186.026284 103.9925,184.7325 C105.385705,183.964568 106.859695,183.35334 108.3875,182.91 C109.366707,182.635944 110.372436,182.467485 111.3875,182.4075 C111.684807,182.392335 111.982693,182.392335 112.28,182.4075 C112.5725,182.4075 112.94,182.4075 113.03,182.4075 L113.96,182.475 C116.45,182.655 118.91,182.9325 121.3175,183.33 C126.079916,184.127529 130.788797,185.217084 135.4175,186.5925 C140.0075,187.9275 144.485,189.5025 148.9175,191.235 C151.115,192.1125 153.305,193.02 155.465,193.9875 C156.545,194.475 157.6175,194.97 158.6975,195.4875 C159.7775,196.005 160.805,196.515 161.9825,197.1225 L155.675,209.4225 Z" id="Path" fill="#FF8B7B"></path>
                        <path d="M65.36,223.905 L73.3925,227.5275 C73.6760894,227.664514 73.8438642,227.964112 73.8125,228.2775 L72.695,235.4175 C72.6451571,235.761403 72.4350379,236.061234 72.128793,236.225452 C71.8225481,236.38967 71.4565352,236.39878 71.1425,236.25 C68.3,234.9975 66.9575,234.3825 63.4325,232.7925 L52.6325,227.925 C49.7,226.605 50.3825,223.3575 51.755,223.635 C57.755,224.8875 61.6325,224.64 64.025,223.815 C64.4654068,223.675408 64.9423145,223.707559 65.36,223.905 Z" id="Path" fill="#14365B"></path>
                        <path d="M174.6425,216.2025 C164.527937,210.568959 153.820046,206.074009 142.715,202.8 C143.33,196.8 144.0875,191.4675 143.1725,187.8 C151.33693,189.137875 159.226652,191.805787 166.5275,195.6975 L174.6425,216.2025 Z" id="Path" fill="#0A1B35"></path>
                        <path d="M141.89,186.3 C141.89,186.3 142.9175,194.0775 141.1925,205.635 C142.696294,206.308631 144.25757,206.84579 145.8575,207.24 C145.94,207.24 149.6075,199.1025 147.2825,187.74 C145.545777,187.055984 143.736521,186.572845 141.89,186.3 Z" id="Path" fill="#77B3FC"></path>
                        <path d="M63.56,224.34 L63.56,224.34 L63.395,224.34 C62.2775,224.1075 60.7475,223.7925 60.455,223.0425 C60.3570035,222.744659 60.4224874,222.417239 60.6275,222.18 C60.743938,221.999487 60.945216,221.891761 61.16,221.895 L61.16,221.895 C62.1275,221.895 63.5525,223.9125 63.71,224.145 C63.7429671,224.19506 63.7429671,224.25994 63.71,224.31 C63.6679357,224.343973 63.6118952,224.355181 63.56,224.34 L63.56,224.34 Z M61.13,222.15 C61.007838,222.147999 60.8937288,222.210759 60.83,222.315 C60.6850552,222.472585 60.6337669,222.694835 60.695,222.9 C60.9125,223.455 62.24,223.7625 63.2225,223.9725 C62.6975,223.275 61.7225,222.1575 61.13,222.15 Z" id="Shape" fill="#FFFFFF"></path>
                        <path d="M63.56,224.34 C63.5195422,224.336685 63.4819266,224.317877 63.455,224.2875 C62.7425,223.5375 61.565,221.235 62,220.5375 C62.09,220.395 62.285,220.245 62.705,220.3725 C64.355,220.8975 63.7325,224.0775 63.7025,224.2125 C63.6954815,224.26615 63.6571081,224.310427 63.605,224.325 L63.56,224.34 Z M62.4125,220.59 C62.2925,220.59 62.255,220.6425 62.2475,220.665 C61.97,221.1 62.7425,222.915 63.47,223.815 C63.575,223.065 63.7475,220.98 62.615,220.62 C62.5490236,220.601555 62.4809904,220.591476 62.4125,220.59 Z" id="Shape" fill="#FFFFFF"></path>
                        <path d="M162.125,218.61 L160.7,217.98 L159.2,217.35 C158.18,216.9225 157.1525,216.5025 156.1175,216.0975 C154.055,215.2725 151.9775,214.4775 149.8775,213.735 C145.7,212.235 141.47,210.87 137.2325,209.7225 C133.051376,208.570755 128.799953,207.691409 124.505,207.09 C122.435498,206.808344 120.352627,206.635605 118.265,206.5725 L117.515,206.5725 L117.2,206.5725 C117.22197,206.579409 117.24553,206.579409 117.2675,206.5725 C117.2675,206.5725 117.2,206.5725 116.9675,206.625 C116.320155,206.845489 115.704818,207.150635 115.1375,207.5325 C113.485214,208.596533 111.931511,209.806362 110.495,211.1475 C108.9275,212.565 107.3975,214.1475 105.875,215.7225 C102.815,218.9325 99.875,222.3975 97.0025,225.9 C91.25,232.95 85.685,240.345 80.255,247.7325 L74.4275,244.17 C78.7754368,235.793173 83.5957011,227.670088 88.865,219.84 C91.505,215.905 94.3425,212.05 97.3775,208.275 C98.9225,206.385 100.5425,204.525 102.305,202.7175 C104.14031,200.769702 106.14854,198.992418 108.305,197.4075 C109.633372,196.446095 111.074,195.650224 112.595,195.0375 C113.580121,194.646466 114.606824,194.369659 115.655,194.2125 C115.97,194.175 116.2775,194.145 116.5925,194.1225 L117.1475,194.1225 L118.115,194.085 C120.670854,193.99928 123.229457,194.049351 125.78,194.235 C130.733716,194.657466 135.649542,195.444599 140.4875,196.59 C145.223556,197.696599 149.897615,199.053503 154.49,200.655 C156.74,201.4575 159.035,202.2975 161.24,203.205 C162.3575,203.6625 163.49,204.1275 164.5925,204.615 L166.265,205.365 L168.005,206.1825 L162.125,218.61 Z" id="Path" fill="#FF8B7B"></path>
                        <path d="M75.755,241.305 L83.795,243.555 C84.0806133,243.631361 84.2662281,243.906583 84.23,244.2 L83.3825,250.815 C83.3269721,251.149553 83.1316279,251.444639 82.8453405,251.626432 C82.5590531,251.808224 82.2089051,251.859525 81.8825,251.7675 C79.0925,250.9425 77.7875,250.4025 74.2475,249.4275 C72.0725,248.82 64.4975,247.0125 61.4975,246.18 C58.4975,245.3475 59.1575,242.3325 60.485,242.43 C66.425,242.7825 72.095,242.52 74.42,241.455 C74.8324181,241.245871 75.306456,241.192609 75.755,241.305 Z" id="Path" fill="#14365B"></path>
                        <path d="M231.9425,210.525 C222.4925,220.545 205.2875,219.09 188.06,221.595 C184.537023,222.075096 181.049479,222.786635 177.62,223.725 C175.4825,218.31 170.9225,206.8125 166.5275,195.675 C169.88,196.8825 173.9675,196.695 178.1525,195.765 C189.7025,193.2075 202.055,185.085 202.055,185.085 C205.820245,187.173782 209.477418,189.451693 213.0125,191.91 C216.67448,194.643549 220.13354,197.638894 223.3625,200.8725 C226.45401,203.87651 229.32166,207.102617 231.9425,210.525 L231.9425,210.525 Z" id="Path" fill="#9FC6FF"></path>
                        <path d="M188.06,221.595 C184.537023,222.075096 181.049479,222.786635 177.62,223.725 C175.4825,218.31 170.9225,206.8125 166.5275,195.675 C169.88,196.8825 173.9675,196.695 178.1525,195.765 C183.995,202.3125 190.415,216.5475 188.06,221.595 Z" id="Path" fill="#FF8B7B"></path>
                        <path d="M232.4375,188.34 C228.8975,191.1075 222.965,196.6425 223.37,200.8875 C223.37,200.8875 214.1825,201.255 206.3075,198.8925 C205.1225,191.175 213.0125,191.925 213.0125,191.925 C217.5125,194.25 219.7625,191.415 221.3825,188.265 L232.4375,188.34 Z" id="Path" fill="#FF8B7B"></path>
                        <path d="M227.93,188.295 L221.3825,188.25 C221.020892,188.98975 220.596856,189.697314 220.115,190.365 C221.7125,191.385 224.9525,191.9625 226.385,190.6125 C227.031631,189.936349 227.554565,189.151948 227.93,188.295 L227.93,188.295 Z" id="Path" fill="#EA7063"></path>
                        <path d="M239.84,181.3875 C235.205,187.1175 233.3675,189.6375 228.1475,190.56 C220.3025,191.9475 214.28,185.0025 217.1075,177.9975 C219.6575,171.6975 226.8125,163.3875 234.3575,165.18 C237.755631,165.962364 240.50536,168.450265 241.622719,171.75343 C242.740078,175.056595 242.065358,178.702882 239.84,181.3875 L239.84,181.3875 Z" id="Path" fill="#FF8B7B"></path>
                        <path d="M237.41,185.0175 C237.334373,185.017213 237.261796,184.987645 237.2075,184.935 L231.1625,179.0325 C231.04652,178.918591 231.044841,178.73223 231.15875,178.61625 C231.272659,178.50027 231.45902,178.498591 231.575,178.6125 L237.6125,184.515 C237.668899,184.568784 237.700813,184.643317 237.700813,184.72125 C237.700813,184.799183 237.668899,184.873716 237.6125,184.9275 C237.559416,184.982898 237.486691,185.01522 237.41,185.0175 Z" id="Path" fill="#0F264C"></path>
                        <path d="M231.1775,165.9525 C231.425,167.5725 234.9275,174.3225 238.445,176.0925 C237.1925,177.39 229.49,182.73 235.5425,186.345 C241.595,189.96 248.9675,182.4675 246.6725,177.2775 C251.27,171.915 246.86,166.875 242.7725,164.175 C238.685,161.475 230.2625,160.0275 231.1775,165.9525 Z" id="Path" fill="#0F264C"></path>
                        <path d="M225.1025,166.9125 C225.1025,166.9125 231.7175,166.035 233.5775,168.0225 C233.9825,166.47 233.5775,164.04 231.4475,164.2725 C229.3175,164.505 225.1025,166.9125 225.1025,166.9125 Z" id="Path" fill="#0F264C"></path>
                        <path d="M247.6025,176.715061 C247.489947,176.712436 247.387793,176.648567 247.336197,176.548504 C247.284602,176.44844 247.291815,176.32818 247.355,176.235 C248.945,173.985 249.3575,171.735 248.5475,169.6425 C247.61,167.2425 245.06,165.3375 241.895,164.67 C241.816015,164.653841 241.746857,164.606571 241.703118,164.538845 C241.659379,164.47112 241.64474,164.388641 241.6625,164.31 C241.699843,164.147873 241.859363,164.04485 242.0225,164.0775 C245.3825,164.79 248.0975,166.8375 249.11,169.4175 C249.7325,171.0075 250.0175,173.535 247.85,176.5875 C247.794313,176.669055 247.701234,176.717006 247.6025,176.715061 Z" id="Path" fill="#0F264C"></path>
                        <path d="M237.59,187.185 C236.561492,188.17271 235.183215,188.712154 233.7575,188.685 C231.8675,188.6325 231.5075,186.8025 232.475,185.3175 C233.3675,183.975 235.43,182.3925 237.1025,183.1725 C237.830232,183.535866 238.327028,184.240203 238.425132,185.047671 C238.523236,185.855139 238.20955,186.657945 237.59,187.185 L237.59,187.185 Z" id="Path" fill="#FF8B7B"></path>
                        <path d="M168.8675,201.84 C168.8675,201.84 160.0325,198.84 147.515,195.84 L146.1425,214.7175 C158.225,220.845 168.8825,229.2225 177.6425,223.7175 L168.8675,201.84 Z" id="Path" fill="#0F264C"></path>
                        <path d="M145.8425,194.595 C146.417004,201.561152 145.962121,208.57394 144.4925,215.4075 C145.951366,216.170368 147.474791,216.802828 149.045,217.2975 C150.828906,210.265962 151.586746,203.01343 151.295,195.765 C149.528616,195.166343 147.698989,194.773741 145.8425,194.595 L145.8425,194.595 Z" id="Path" fill="#9FC6FF"></path>
                        <path d="M179.435,223.4925 L177.185,225.1425 C177.069842,225.186992 176.941073,225.179528 176.831826,225.12203 C176.72258,225.064532 176.643524,224.962613 176.615,224.8425 L164.8025,195.0075 C164.6975,194.76 164.7575,194.4525 165.065,194.459865 L168.065,194.985 C168.349225,195.014306 168.582315,195.223178 168.6425,195.5025 L179.5025,222.9525 C179.575849,223.131936 179.550261,223.33664 179.435,223.4925 Z" id="Path" fill="#0053CC"></path>
                        <path d="M174.7475,220.935 L175.0475,221.685 C175.1075,221.835 175.235,221.9175 175.325,221.8725 L178.445,220.2225 C178.535,220.1775 178.565,220.0125 178.505,219.8625 L178.1975,219.1125 C178.1375,218.9625 178.0175,218.88 177.9275,218.925 L174.8075,220.575 C174.7175,220.59 174.6875,220.785 174.7475,220.935 Z" id="Path" fill="#0F264C"></path>
                        <path d="M165.4925,197.7825 L165.77,198.5325 C165.810968,198.665507 165.930978,198.758514 166.07,198.765 L169.7375,198.015 C169.8425,198.015 169.8875,197.8575 169.8275,197.715 L169.55,196.965 C169.509032,196.831993 169.389022,196.738986 169.25,196.7325 L165.5825,197.4825 C165.4925,197.505 165.44,197.64 165.4925,197.7825 Z" id="Path" fill="#0F264C"></path>
                        <path d="M170.15,209.34 L170.45,210.09 C170.51,210.24 170.6375,210.3375 170.735,210.3 L174.065,209.115 C174.1625,209.0775 174.2,208.9275 174.14,208.7775 L173.84,208.0275 C173.78,207.8775 173.6525,207.7875 173.555,207.8175 L170.225,209.01 C170.1275,209.055 170.0975,209.205 170.15,209.34 Z" id="Path" fill="#0F264C"></path>
                        <path d="M232.0625,178.635 C231.145109,179.887652 229.572066,180.476807 228.0575,180.135 C227.62847,180.020474 227.227637,179.818781 226.88,179.5425 C226.134022,178.893393 225.679786,177.972036 225.619157,176.985046 C225.558527,175.998057 225.896578,175.028031 226.5575,174.2925 L232.0625,178.635 Z" id="Path" fill="#0F264C"></path>
                        <path d="M226.46,175.14 C226.391414,175.140796 226.324841,175.11683 226.2725,175.0725 L225.38,174.3225 C225.255736,174.218947 225.238947,174.034264 225.3425,173.91 C225.446053,173.785736 225.630736,173.768947 225.755,173.8725 L226.6475,174.6225 C226.760959,174.736595 226.760959,174.920905 226.6475,175.035 C226.601095,175.093125 226.533807,175.130807 226.46,175.14 Z" id="Path" fill="#0F264C"></path>
                        <path d="M229.5575,176.5875 C229.2125,177.075 228.6725,177.2925 228.3575,177.06 C228.0425,176.8275 228.0575,176.2575 228.4025,175.77 C228.7475,175.2825 229.295,175.065 229.61,175.2975 C229.925,175.53 229.91,176.1 229.5575,176.5875 Z" id="Path" fill="#0F264C"></path>
                        <path d="M226.1375,173.9625 C225.220109,175.215152 223.647066,175.804307 222.1325,175.4625 C221.703917,175.35063 221.303048,175.151473 220.955,174.8775 C219.41,173.67 219.2675,171.3525 220.6325,169.6275 L226.1375,173.9625 Z" id="Path" fill="#0F264C"></path>
                        <path d="M224.045,172.665 C223.7,173.1525 223.16,173.3625 222.8375,173.1375 C222.515,172.9125 222.545,172.3275 222.89,171.84 C223.235,171.3525 223.775,171.1425 224.0975,171.3675 C224.42,171.5925 224.39,172.1775 224.045,172.665 Z" id="Path" fill="#0F264C"></path>
                        <path d="M224.2175,171.495 L223.2875,170.34 C223.2875,170.34 223.2425,171.6675 224.2175,171.495 Z" id="Path" fill="#0F264C"></path>
                        <path d="M225.5675,174.5625 C224.159398,175.162591 222.675522,175.566366 221.1575,175.7625 C221.239483,176.516287 221.647969,177.196181 222.275,177.6225 L225.5675,174.5625 Z" id="Path" fill="#FF5652"></path>
                        <path d="M225.875,182.1075 C224.777462,182.099814 223.709932,181.748342 222.8225,181.1025 C222.757282,181.052909 222.740977,180.961599 222.785,180.8925 C222.843327,180.835329 222.936673,180.835329 222.995,180.8925 C224.212204,181.805386 225.791443,182.083911 227.2475,181.6425 C227.322058,181.613505 227.406005,181.650442 227.435,181.725 C227.463995,181.799558 227.427058,181.883505 227.3525,181.9125 C226.875705,182.065694 226.375214,182.131748 225.875,182.1075 Z" id="Path" fill="#0F264C"></path>
                        <path d="M234.17,174.615 C234.020753,174.619751 233.893143,174.508501 233.8775,174.36 C233.79413,173.44739 233.278116,172.630134 232.49,172.1625 C232.348525,172.089019 232.289229,171.91772 232.355,171.7725 C232.388906,171.701043 232.450305,171.646363 232.525197,171.620928 C232.600089,171.595493 232.682089,171.601471 232.7525,171.6375 C233.718564,172.192377 234.353812,173.183028 234.455,174.2925 C234.465567,174.369367 234.444338,174.447219 234.396214,174.508082 C234.34809,174.568945 234.277232,174.607556 234.2,174.615 L234.17,174.615 Z" id="Path" fill="#0F264C"></path>
                        <path d="M225.9275,169.522506 C225.836744,169.523102 225.750849,169.48154 225.695,169.41 C225.084175,168.724796 224.176062,168.382852 223.265,168.495 C223.187705,168.505622 223.109509,168.483213 223.049571,168.433265 C222.989633,168.383317 222.953491,168.310444 222.95,168.2325 C222.941622,168.154842 222.964653,168.077058 223.013961,168.01648 C223.063269,167.955901 223.134758,167.917561 223.2125,167.91 C224.321346,167.792478 225.418808,168.216942 226.16,169.05 C226.207746,169.110288 226.229101,169.187313 226.219214,169.263579 C226.209328,169.339845 226.169039,169.408879 226.1075,169.455 C226.057128,169.497667 225.993507,169.521526 225.9275,169.522506 L225.9275,169.522506 Z" id="Path" fill="#0F264C"></path>
                        <path d="M220.46,203.1 C223.5425,200.9775 236.2925,204.645 236.2925,204.645 L234.365,220.14 C234.365,220.14 220.9775,217.095 216.17,217.425 C212.09,217.71 216.5375,205.8 220.46,203.1 Z" id="Path" fill="#9FC6FF"></path>
                        <path d="M74.9225,242.1075 L74.9225,242.1075 C73.94,242.07 72.215,241.89 71.72,241.1025 C71.5543611,240.806603 71.5543611,240.445897 71.72,240.15 C71.7898252,239.95758 71.9598979,239.819215 72.1625,239.79 C73.085,239.6625 74.855,241.6425 75.0575,241.8675 C75.0872796,241.915777 75.0872796,241.976723 75.0575,242.025 C75.0333013,242.07725 74.9800352,242.109801 74.9225,242.1075 L74.9225,242.1075 Z M72.2525,240.09 L72.185,240.09 C72.0814336,240.111936 71.9964332,240.185603 71.96,240.285 C71.8425418,240.497339 71.8425418,240.755161 71.96,240.9675 C72.245,241.41 73.205,241.7175 74.57,241.815 C73.9925,241.1475 72.8375,240.09 72.2525,240.09 Z" id="Shape" fill="#FFFFFF"></path>
                        <path d="M74.9225,242.107505 C74.8864248,242.107793 74.8515814,242.094391 74.825,242.07 C74.255,241.4925 73.385,239.61 73.7675,238.86 C73.8879557,238.611512 74.1692053,238.485108 74.435,238.56 C74.6979408,238.59674 74.9312445,238.747701 75.0725,238.9725 C75.65,239.865 75.0725,241.92 75.0725,241.9725 C75.0584943,242.023584 75.0185843,242.063494 74.9675,242.0775 L74.9225,242.107505 Z M74.2925,238.8375 C74.1804187,238.828165 74.073787,238.887405 74.0225,238.9875 C73.7675,239.4975 74.3375,240.9525 74.855,241.65 C74.9825,241.0725 75.2225,239.7375 74.855,239.13 C74.7585285,238.976081 74.5996378,238.871981 74.42,238.845 L74.2925,238.8375 Z" id="Shape" fill="#FFFFFF"></path>
                        <path d="M229.7375,175.425 L228.8,174.2475 C228.8,174.2475 228.755,175.59 229.7375,175.425 Z" id="Path" fill="#0F264C"></path>
                        <polygon id="Path" fill="#9FC6FF" points="255.2675 244.035 267.77 244.035 261.515 250.29"></polygon>
                        <polygon id="Path" fill="#9FC6FF" points="257.765 257.1825 265.2725 257.1825 261.515 256.3725"></polygon>
                        <rect id="Rectangle" fill="#9FC6FF" x="261.11" y="249.255" width="1" height="7.53"></rect>
                        <polygon id="Path" fill="#9FC6FF" style="mix-blend-mode: multiply;" points="261.515 249.1425 263.9375 246.7275 259.0925 246.7275"></polygon>
                        <path d="M262.595,247.59 C262.562865,247.596891 262.529635,247.596891 262.4975,247.59 C262.403189,247.531784 262.370355,247.410299 262.4225,247.3125 L264.935,242.715 C264.969833,242.650692 265.036329,242.609853 265.109437,242.607865 C265.182546,242.605878 265.251162,242.643045 265.289438,242.705365 C265.327713,242.767686 265.329833,242.845692 265.295,242.91 L262.775,247.5075 C262.733453,247.564459 262.665271,247.595709 262.595,247.59 L262.595,247.59 Z" id="Path" fill="#9FC6FF" style="mix-blend-mode: multiply;"></path>
                    </g>
                </g>
            </g>
        </g>
    </g>
</svg>